…
Note how the number of rows is unknown (?? at the top of the output above) for the lazy query.

Similarly, we can explore the Subjects table.

Subject  %>% summarise(total = n())
## # Source:   lazy query [?? x 1]
## # Database: mysql 5.5.58-0ubuntu0.14.04.1-log
## #   [waiuser@scidb.smith.edu:/wai]
##   total
##   <dbl>
## 1   633
Subject %>% collect()  # be careful with collect() with large tables!
## # A tibble: 633 x 10
##    Identifier Sub_Number Session_Total   Age Female  Race Ethnicity
##    <chr>      <chr>              <int> <int>  <int> <int>     <int>
##  1 Rosowski_~ 3                      1    30      1     5         2
##  2 Rosowski_~ 6                      1    29      0     5         2
##  3 Rosowski_~ 11                     1    64      1     5         2
##  4 Rosowski_~ 12                     1    42      1     5         2
##  5 Rosowski_~ 14                     1    24      0     5         2
##  6 Rosowski_~ 15                     1    32      1     5         2
##  7 Rosowski_~ 17                     1    22      0     5         2
##  8 Rosowski_~ 18                     1    33      1     5         2
##  9 Rosowski_~ 21                     1    36      1     3         2
## 10 Rosowski_~ 22                     1    33      0     5         2
## # ... with 623 more rows, and 3 more variables: Left_Ear_Status <int>,
## #   Right_Ear_Status <int>, Sub_Notes <chr>
…
